Tidyverse: Read Data – DNA-Geek’s Playground
…
Let’s run the suggested problems() command as suggested!

problems(depmap_mutation_data)

# A tibble: 584 × 5
     row   col expected           actual                                   file 
   <int> <int> <chr>              <chr>                                    <chr>
 1 12396    60 1/0/T/F/TRUE/FALSE Reduced foot dorsiflexion strength in C… C:/U…
 2 12396    61 1/0/T/F/TRUE/FALSE 30706531.0                               C:/U…
 3 12428    60 1/0/T/F/TRUE/FALSE Pulse pressure                           C:/U…
 4 12428    61 1/0/T/F/TRUE/FALSE 30224653.0                               C:/U…
 5 16816    58 1/0/T/F/TRUE/FALSE dd227                                    C:/U…
 6 16816    59 1/0/T/F/TRUE/FALSE CANDLE syndrome                          C:/U…
 7 18217    60 1/0/T/F/TRUE/FALSE Response to anti-retroviral therapy (dd… C:/U…
 8 18217    61 1/0/T/F/TRUE/FALSE 24554482.0                               C:/U…
 9 18985    60 1/0/T/F/TRUE/FALSE Migraine                                 C:/U…
10 18985    61 1/0/T/F/TRUE/FALSE 27322543.0                               C:/U…
# ℹ 574 more rows
…
